<svg width="25" height="24" viewBox="0 0 25 24" fill="none" xmlns="http://www.w3.org/2000/svg">
<g clip-path="url(#clip0_161_439)">
<path d="M13.134 15.6H11.934V14.8C11.934 14.56 11.774 14.4 11.534 14.4H10.734V12.4C10.734 12.16 10.574 12 10.334 12H9.93398V3.6C9.93398 2.43998 9.414 1.59998 8.73398 1.59998H8.334V0.800016C8.334 0.36 7.974 0 7.53398 0H6.73396C6.29395 0 5.93395 0.36 5.93395 0.800016V1.60003H5.53396C4.85395 1.60003 4.33396 2.44003 4.33396 3.60005V12H3.93398C3.69398 12 3.53399 12.16 3.53399 12.4V14.4H2.73398C2.49398 14.4 2.33399 14.56 2.33399 14.8V15.6H1.13399C0.893993 15.6 0.734009 15.76 0.734009 16V17.6C0.734009 17.84 0.893993 18 1.13399 18H3.53399V21.6C3.53399 21.84 3.69398 21.9999 3.93398 21.9999H5.13398V23.5999C5.13398 23.8399 5.29396 23.9999 5.53396 23.9999C5.77396 23.9999 5.93395 23.8399 5.93395 23.5999V21.9999H8.33395V23.5999C8.33395 23.8399 8.49393 23.9999 8.73393 23.9999C8.97393 23.9999 9.13392 23.8399 9.13392 23.5999V21.9999H10.3339C10.5739 21.9999 10.7339 21.84 10.7339 21.6V18H13.1339C13.3739 18 13.5339 17.84 13.5339 17.6V16C13.534 15.76 13.374 15.6 13.134 15.6V15.6ZM5.53396 2.4H6.33398C6.57398 2.4 6.73396 2.24002 6.73396 2.00002V0.800016H7.53398V2.00002C7.53398 2.24002 7.69396 2.4 7.93396 2.4H8.73398C8.79867 2.4 9.0202 2.68795 9.1026 3.20002H5.16529C5.24779 2.688 5.46928 2.4 5.53396 2.4V2.4ZM5.13398 3.99998H9.13396V12H5.13398V3.99998ZM4.33396 12.8H4.73395H9.53395H9.93393V14.4H4.33396V12.8ZM9.93398 21.2H4.33396V18H9.93398V21.2ZM12.734 17.2H10.334H3.93398H1.53398V16.4H2.73398C2.97398 16.4 3.13396 16.24 3.13396 16V15.2H3.93398H10.334H11.134V16C11.134 16.24 11.294 16.4 11.534 16.4H12.734V17.2Z" fill="#17488B"/>
<path d="M22.334 5.59996C21.294 4.67995 19.934 4.23998 18.574 4.39996C16.414 4.63996 14.614 6.39998 14.374 8.59996C14.214 9.91996 14.614 11.2 15.414 12.2C16.014 12.9599 16.334 13.88 16.334 14.8V20.3999C16.334 20.514 16.3705 20.6098 16.4343 20.6791C16.8504 21.6775 17.9558 22.4 19.1341 22.4C20.3123 22.4 21.4177 21.6775 21.8338 20.6791C21.8976 20.6098 21.9341 20.514 21.9341 20.3999V14.7999C21.9341 14.7931 21.9335 14.7866 21.9332 14.7799C21.9335 14.7732 21.9341 14.7667 21.9341 14.7599C21.9341 13.7999 22.2541 12.9199 22.8541 12.1999C23.5341 11.3599 23.9341 10.2799 23.9341 9.15993C23.934 7.79995 23.334 6.51993 22.334 5.59996V5.59996ZM21.134 20H17.134V15.2H21.134V20ZM19.134 21.5999C18.454 21.5999 17.814 21.2799 17.414 20.7999H20.854C20.454 21.2799 19.814 21.5999 19.134 21.5999ZM22.214 11.72C21.574 12.4799 21.214 13.4399 21.134 14.3999H19.534V11.1999H20.334C20.574 11.1999 20.734 11.0399 20.734 10.7999C20.734 10.5599 20.574 10.4 20.334 10.4H19.534V9.59995H21.134C21.374 9.59995 21.534 9.43996 21.534 9.19996C21.534 8.95996 21.374 8.79998 21.134 8.79998H19.534V7.99996H21.534C21.774 7.99996 21.934 7.83998 21.934 7.59998C21.934 7.35998 21.774 7.19999 21.534 7.19999H16.734C16.494 7.19999 16.334 7.35998 16.334 7.59998C16.334 7.83998 16.494 7.99996 16.734 7.99996H18.734V8.79998H17.134C16.894 8.79998 16.734 8.95996 16.734 9.19996C16.734 9.43996 16.894 9.59995 17.134 9.59995H18.734V10.4H17.934C17.694 10.4 17.534 10.5599 17.534 10.7999C17.534 11.0399 17.694 11.1999 17.934 11.1999H18.734V14.3999H17.134C17.054 13.4399 16.654 12.4799 16.054 11.72C15.374 10.88 15.054 9.79996 15.174 8.71996C15.374 6.87998 16.854 5.39995 18.694 5.19998C19.854 5.07998 20.974 5.43998 21.814 6.19996C22.654 6.95995 23.134 8.07998 23.134 9.19996C23.134 10.1199 22.814 11 22.214 11.72V11.72Z" fill="#17488B"/>
</g>
<defs>
<clipPath id="clip0_161_439">
<rect width="24" height="24" fill="white" transform="translate(0.333984)"/>
</clipPath>
</defs>
</svg>
