<svg width="23" height="22" viewBox="0 0 23 22" fill="none" xmlns="http://www.w3.org/2000/svg">
<g clip-path="url(#clip0_161_487)">
<path d="M22.0804 9.65707C22.0281 9.50483 21.8428 9.38643 21.688 9.38643C21.0179 9.38643 20.3479 9.38643 19.6778 9.38643C19.5231 9.38643 19.3377 9.50483 19.2853 9.65707C19.2341 9.80608 19.1959 9.93904 19.1705 10.0641L17.8277 6.34911C17.6062 5.73652 17.0196 5.32495 16.3683 5.32495H6.09807C5.44668 5.32495 4.86024 5.73652 4.63865 6.34923L3.29578 10.0645C3.27031 9.93937 3.23207 9.80625 3.18084 9.65707C3.12855 9.50483 2.94314 9.38643 2.78844 9.38643C2.11838 9.38643 1.44831 9.38643 0.778189 9.38643C0.623494 9.38643 0.438083 9.50483 0.385793 9.65707C0.18221 10.2498 0.182321 10.5891 0.385849 11.1819C0.438139 11.3342 0.62355 11.4526 0.778244 11.4526C1.44837 11.4526 2.11843 11.4526 2.7885 11.4526C2.79039 11.4526 2.7924 11.4521 2.79435 11.452L2.76402 11.536C2.35412 11.6722 2.05817 12.0581 2.05817 12.5138V15.6247V15.881V19.3235C2.05817 19.5971 2.27993 19.8189 2.55358 19.8189H5.04693C5.32053 19.8189 5.54234 19.5971 5.54234 19.3235V16.9118H16.924V19.3235C16.924 19.5971 17.1458 19.8189 17.4194 19.8189H19.9127C20.1864 19.8189 20.4082 19.5971 20.4082 19.3235V15.881V15.6247V12.5138C20.4082 12.0582 20.1123 11.6724 19.7026 11.5361L19.6722 11.452C19.674 11.4521 19.676 11.4525 19.6778 11.4525C20.3479 11.4525 21.018 11.4525 21.6881 11.4525C21.8428 11.4525 22.0282 11.3341 22.0805 11.1819C22.284 10.5891 22.2839 10.2498 22.0804 9.65707ZM6.28778 7.14806H16.1772L17.7441 11.483H4.72093L6.28778 7.14806ZM6.56361 14.5368H4.47771C4.03018 14.5368 3.66744 14.1741 3.66744 13.7265C3.66744 13.2791 4.03012 12.9163 4.47771 12.9163H6.56361C7.01108 12.9163 7.37387 13.279 7.37387 13.7265C7.37393 14.1741 7.01108 14.5368 6.56361 14.5368ZM17.9884 14.5368H15.9025C15.4551 14.5368 15.0923 14.1741 15.0923 13.7265C15.0923 13.2791 15.4551 12.9163 15.9025 12.9163H17.9884C18.436 12.9163 18.7987 13.279 18.7987 13.7265C18.7987 14.1741 18.436 14.5368 17.9884 14.5368Z" fill="#17488B"/>
</g>
<defs>
<clipPath id="clip0_161_487">
<rect width="22" height="22" fill="white" transform="translate(0.233154)"/>
</clipPath>
</defs>
</svg>
