<svg width="25" height="24" viewBox="0 0 25 24" fill="none" xmlns="http://www.w3.org/2000/svg">
<g clip-path="url(#clip0_161_409)">
<path d="M18.4915 0C15.9815 0 13.7973 1.46461 12.7503 3.5812L2.67545 13.656C1.59151 14.4555 0.891479 15.7419 0.891479 17.2C0.891479 19.6259 2.82901 21.577 5.2494 21.5994C5.2501 21.5996 5.25081 21.5998 5.25151 21.6L20.8251 23.879C21.0861 23.9529 21.3602 23.9944 21.6431 23.9987L21.6515 24H21.6915C23.4515 24 24.8915 22.56 24.8915 20.8V6.39998C24.8915 2.88 22.0115 0 18.4915 0ZM18.4915 0.800016C21.5715 0.800016 24.0915 3.32002 24.0915 6.40003C24.0915 9.48005 21.5715 12 18.4915 12C15.4115 12 12.8915 9.48 12.8915 6.39998C12.8915 5.53847 13.0888 4.72083 13.4402 3.98981C13.4488 3.97472 13.4564 3.95939 13.4628 3.94369C14.377 2.08622 16.2912 0.800016 18.4915 0.800016ZM1.6915 17.2C1.6915 16.036 2.23407 15.0082 3.08143 14.3518C3.10637 14.337 3.13004 14.3184 3.15343 14.2969C3.74987 13.8585 4.48825 13.6 5.29149 13.6C7.29151 13.6 8.8915 15.2 8.8915 17.2C8.8915 19.2 7.29151 20.8 5.29149 20.8C3.29148 20.8 1.6915 19.2 1.6915 17.2ZM21.6915 23.2C20.3715 23.2 19.2915 22.12 19.2915 20.8C19.2915 19.48 20.3715 18.4 21.6915 18.4C23.0115 18.4 24.0915 19.48 24.0915 20.8C24.0915 22.12 23.0115 23.2 21.6915 23.2ZM24.0915 18.6904C23.5039 18.0232 22.6449 17.6 21.6915 17.6C19.9314 17.6 18.4914 19.04 18.4914 20.8C18.4914 21.5889 18.7814 22.3129 19.2591 22.8724L7.29648 21.1217C8.72134 20.3956 9.69146 18.9166 9.69146 17.2C9.69146 14.76 7.73148 12.8 5.29145 12.8C5.05515 12.8 4.8234 12.8186 4.59742 12.854L12.1946 5.25684C12.1269 5.62805 12.0915 6.01003 12.0915 6.39998C12.0915 9.91997 14.9715 12.8 18.4914 12.8C20.8936 12.8 22.9973 11.4585 24.0915 9.48797V18.6904Z" fill="#17488B"/>
<path d="M21.6915 20.4C21.4515 20.4 21.2915 20.56 21.2915 20.8C21.2915 21.04 21.4515 21.2 21.6915 21.2C21.9315 21.2 22.0915 21.04 22.0915 20.8C22.0915 20.56 21.9315 20.4 21.6915 20.4Z" fill="#17488B"/>
<path d="M18.4915 4.00004C18.7315 4.00004 18.8915 3.84006 18.8915 3.60006C18.8915 3.36006 18.7315 3.20007 18.4915 3.20007C18.2515 3.20007 18.0915 3.36006 18.0915 3.60006C18.0915 3.84006 18.2515 4.00004 18.4915 4.00004Z" fill="#17488B"/>
<path d="M18.4915 8.79993C18.2515 8.79993 18.0915 8.95991 18.0915 9.19991C18.0915 9.43991 18.2515 9.5999 18.4915 9.5999C18.7315 9.5999 18.8915 9.43991 18.8915 9.19991C18.8915 8.95991 18.7315 8.79993 18.4915 8.79993Z" fill="#17488B"/>
<path d="M7.29147 17.2C7.29147 16.08 6.41149 15.2 5.29146 15.2C4.17147 15.2 3.29144 16.0799 3.29144 17.2C3.29144 18.32 4.17147 19.2 5.2915 19.2C6.41149 19.2 7.29147 18.32 7.29147 17.2ZM4.0915 17.2C4.0915 16.52 4.61149 16 5.2915 16C5.97152 16 6.4915 16.52 6.4915 17.2C6.4915 17.88 5.97152 18.4 5.2915 18.4C4.61149 18.4 4.0915 17.88 4.0915 17.2Z" fill="#17488B"/>
<path d="M21.2915 6.80002C21.5315 6.80002 21.6914 6.64003 21.6914 6.40003C21.6914 6.16003 21.5315 6 21.2915 6C21.0515 6 20.8915 6.15998 20.8915 6.39998C20.8915 6.63998 21.0515 6.80002 21.2915 6.80002Z" fill="#17488B"/>
<path d="M15.6915 6.80002C15.9315 6.80002 16.0915 6.64003 16.0915 6.40003C16.0915 6.16003 15.9315 6 15.6915 6C15.4515 6 15.2915 6.15998 15.2915 6.39998C15.2915 6.63998 15.4515 6.80002 15.6915 6.80002Z" fill="#17488B"/>
<path d="M16.4915 4.79997C16.7315 4.79997 16.8915 4.63998 16.8915 4.39998C16.8915 4.15998 16.7315 4 16.4915 4C16.2515 4 16.0915 4.15998 16.0915 4.39998C16.0915 4.63998 16.2515 4.79997 16.4915 4.79997Z" fill="#17488B"/>
<path d="M20.4915 8C20.2515 8 20.0915 8.15998 20.0915 8.39998C20.0915 8.63998 20.2515 8.79997 20.4915 8.79997C20.7315 8.79997 20.8915 8.63998 20.8915 8.39998C20.8915 8.15998 20.7315 8 20.4915 8Z" fill="#17488B"/>
<path d="M20.4915 4.79997C20.7315 4.79997 20.8915 4.63998 20.8915 4.39998C20.8915 4.15998 20.7315 4 20.4915 4C20.2515 4 20.0915 4.15998 20.0915 4.39998C20.0915 4.63998 20.2515 4.79997 20.4915 4.79997Z" fill="#17488B"/>
<path d="M16.4915 8C16.2515 8 16.0915 8.15998 16.0915 8.39998C16.0915 8.63998 16.2515 8.79997 16.4915 8.79997C16.7315 8.79997 16.8915 8.63998 16.8915 8.39998C16.8915 8.15998 16.7315 8 16.4915 8Z" fill="#17488B"/>
<path d="M18.4915 11.2C21.1315 11.2 23.2915 9.03998 23.2915 6.39998C23.2915 3.75998 21.1315 1.59998 18.4915 1.59998C15.8515 1.59998 13.6915 3.75998 13.6915 6.39998C13.6915 9.03998 15.8515 11.2 18.4915 11.2ZM18.4915 2.39999C20.6915 2.39999 22.4915 4.19999 22.4915 6.39998C22.4915 8.59996 20.6915 10.4 18.4915 10.4C16.2915 10.4 14.4915 8.59996 14.4915 6.39998C14.4915 4.19999 16.2914 2.39999 18.4915 2.39999Z" fill="#17488B"/>
<path d="M18.4915 8.00002C19.3715 8.00002 20.0915 7.28002 20.0915 6.40003C20.0915 5.52005 19.3715 4.80005 18.4915 4.80005C17.6115 4.80005 16.8915 5.52005 16.8915 6.40003C16.8915 7.28002 17.6115 8.00002 18.4915 8.00002ZM18.4915 5.60002C18.9315 5.60002 19.2915 5.96002 19.2915 6.40003C19.2915 6.84005 18.9315 7.20005 18.4915 7.20005C18.0515 7.20005 17.6915 6.84005 17.6915 6.40003C17.6915 5.96002 18.0515 5.60002 18.4915 5.60002Z" fill="#17488B"/>
</g>
<defs>
<clipPath id="clip0_161_409">
<rect width="24" height="24" fill="white" transform="translate(0.891479)"/>
</clipPath>
</defs>
</svg>
