<svg width="25" height="24" viewBox="0 0 25 24" fill="none" xmlns="http://www.w3.org/2000/svg">
<path fill-rule="evenodd" clip-rule="evenodd" d="M13.0992 0.022558C12.5501 0.121963 12.1074 0.536833 11.9579 1.09203C11.9202 1.23201 11.9127 1.56066 11.944 1.70172C12.0623 2.23482 12.4529 2.65654 12.9658 2.80473C13.1041 2.84472 13.4373 2.86161 13.584 2.83606C14.3193 2.70802 14.8521 2.00491 14.7652 1.27717C14.6668 0.452068 13.9031 -0.122987 13.0992 0.022558ZM20.1723 0.502603C19.5861 0.601153 19.0525 0.998173 18.7814 1.53751C18.5705 1.957 18.5313 2.51194 18.6804 2.96821C18.8385 3.45202 19.2173 3.88307 19.6744 4.09923C19.8109 4.16381 20.0339 4.23492 20.1808 4.26071C20.3391 4.28852 20.6689 4.2851 20.8285 4.254C21.2257 4.17662 21.5452 4.00634 21.8308 3.71977C22.2063 3.3429 22.3904 2.89746 22.3888 2.36922C22.3856 1.31622 21.5295 0.472198 20.4733 0.480808C20.3743 0.481618 20.2388 0.491413 20.1723 0.502603ZM13.5814 1.01376C13.9111 1.19875 13.8945 1.68739 13.5529 1.85517C13.4815 1.89022 13.4495 1.89666 13.3483 1.89634C13.1914 1.89585 13.0978 1.85553 12.9967 1.74492C12.9003 1.63944 12.8698 1.54909 12.879 1.39612C12.89 1.21167 12.9719 1.08639 13.1354 1.00372C13.2228 0.959593 13.2363 0.957133 13.3639 0.962323C13.4817 0.967108 13.5104 0.973903 13.5814 1.01376ZM20.6683 1.44664C21.0298 1.51105 21.3368 1.80756 21.4169 2.16967C21.5494 2.76915 21.1009 3.32922 20.4883 3.32922C20.0285 3.32922 19.6492 3.01726 19.5572 2.56357C19.4935 2.24883 19.5887 1.93897 19.82 1.70905C20.053 1.47733 20.3408 1.38831 20.6683 1.44664ZM7.78033 2.40027C6.7909 2.55301 6.00823 3.27678 5.78641 4.2441C5.76653 4.3308 5.74595 4.47798 5.74069 4.57119C5.73314 4.70448 5.726 4.74327 5.70718 4.7529C5.69404 4.75964 5.61239 4.76925 5.52577 4.77428C5.13392 4.797 4.70707 4.95381 4.34821 5.20686C4.20033 5.31114 3.94674 5.55413 3.84811 5.68604L3.78508 5.77037L3.69168 5.74968C3.5343 5.71482 3.24429 5.708 3.06831 5.73501C2.13616 5.87808 1.44577 6.6798 1.44577 7.61922C1.44577 8.14125 1.65253 8.61506 2.04211 8.9858C2.11542 9.05555 2.23099 9.14922 2.29894 9.19394C2.39935 9.26001 2.42115 9.28101 2.41528 9.30599C2.41131 9.32289 2.40351 9.38097 2.39797 9.43505C2.38803 9.53214 2.38702 9.53394 2.31808 9.57735C2.07123 9.73278 1.74067 10.028 1.56292 10.2517C1.23957 10.6587 1.0525 11.0897 0.987641 11.5769C0.897746 12.2521 1.09615 12.9276 1.56568 13.545L1.6518 13.6582L1.55584 13.77C1.27573 14.0962 1.0825 14.4772 1.00084 14.8642C0.964391 15.037 0.963911 15.434 0.999926 15.6142C1.07482 15.9889 1.27948 16.3987 1.5421 16.6998C1.59637 16.7621 1.64074 16.8217 1.64068 16.8323C1.64064 16.843 1.61361 16.9213 1.58061 17.0062C1.46796 17.2962 1.45315 17.3739 1.45423 17.6692C1.45501 17.8796 1.46167 17.9618 1.48783 18.0833C1.57611 18.4935 1.77789 18.9008 2.02491 19.1676C2.14951 19.3022 2.23275 19.3409 2.39827 19.3411C2.54512 19.3413 2.62801 19.3078 2.72811 19.2077C2.82723 19.1086 2.8615 19.024 2.86222 18.8767C2.86296 18.7289 2.83645 18.665 2.7069 18.5019C2.47656 18.2121 2.35797 17.8031 2.40525 17.4617C2.42805 17.297 2.46778 17.1694 2.55316 16.9867C2.61949 16.8448 2.62326 16.8299 2.62306 16.7092C2.62278 16.5384 2.5891 16.4771 2.38707 16.2791C2.15929 16.056 2.04471 15.8716 1.96723 15.6036C1.93831 15.5035 1.93344 15.4512 1.93336 15.2392C1.93326 14.9472 1.95141 14.8602 2.06005 14.6317C2.14977 14.4431 2.23368 14.33 2.383 14.1967C2.68854 13.9239 2.7286 13.8623 2.72568 13.6694C2.72344 13.5228 2.67493 13.4369 2.4814 13.2367C2.09668 12.8388 1.92577 12.4282 1.92577 11.9017C1.92577 11.579 1.98582 11.3221 2.12632 11.0438C2.3172 10.6657 2.6116 10.3812 3.02827 10.1722C3.19564 10.0882 3.27175 10.0199 3.32379 9.90672C3.35311 9.84294 3.358 9.809 3.35646 9.67988L3.35464 9.52803L3.48396 9.51759C4.11747 9.4664 4.67127 9.11708 4.99514 8.56436C5.13101 8.33246 5.21122 8.07909 5.24211 7.78413C5.29513 7.27764 5.104 6.72759 4.73739 6.33161L4.63612 6.22223L4.7322 6.12476C4.90135 5.95316 5.12882 5.82338 5.37677 5.75699C5.56805 5.70578 5.8675 5.70879 6.07292 5.76401C6.26518 5.81567 6.39016 5.81702 6.49424 5.76855C6.60302 5.7179 6.6727 5.65068 6.72506 5.54589C6.78544 5.42507 6.7867 5.30937 6.72986 5.10431C6.69359 4.97349 6.68908 4.93202 6.69005 4.73922C6.69131 4.48826 6.71677 4.36937 6.81338 4.16318C7.02991 3.70114 7.43071 3.40978 7.94008 3.34414C8.20439 3.31009 8.47552 3.35656 8.72827 3.47923C9.08206 3.65095 9.33287 3.94289 9.46355 4.33508C9.52742 4.52675 9.58078 4.61559 9.66812 4.67568C9.77012 4.74584 9.85844 4.76921 10.0225 4.7694C10.1926 4.76961 10.2906 4.79255 10.4458 4.86848C10.54 4.91457 10.5863 4.95236 10.7308 5.10062C10.9178 5.2926 10.9854 5.33516 11.1268 5.34975C11.2756 5.36511 11.4672 5.27927 11.5438 5.16285C11.5641 5.13198 11.6137 5.05089 11.6539 4.98264C11.8382 4.67021 12.1538 4.42979 12.5083 4.3317C12.61 4.30355 12.6659 4.29852 12.8758 4.29873C13.1011 4.29894 13.1351 4.30257 13.2551 4.3392C13.6431 4.45761 13.935 4.69851 14.1397 5.06922C14.2454 5.26074 14.3759 5.34444 14.571 5.34588C14.6691 5.34662 14.6968 5.34032 14.7838 5.29751C14.8651 5.2575 14.9022 5.22609 14.9818 5.12985C15.1861 4.88298 15.4224 4.76807 15.7258 4.76807C15.806 4.76807 15.9076 4.77824 15.9583 4.79136C16.2813 4.87503 16.5342 5.12324 16.6409 5.46144C16.6954 5.63448 16.8179 5.75841 16.9744 5.79902C17.0888 5.82867 17.1456 5.82432 17.3102 5.77331C17.5924 5.6858 17.8197 5.70018 18.0649 5.8211C18.308 5.94098 18.4867 6.1728 18.5606 6.46422C18.629 6.73392 18.7915 6.87402 19.0361 6.87416C19.1894 6.87425 19.3032 6.8166 19.4288 6.67526C19.6073 6.47442 19.8671 6.31137 20.1283 6.23625C20.2311 6.20667 20.2826 6.20174 20.4883 6.20174C20.6923 6.20172 20.7472 6.20691 20.8548 6.23628C21.6127 6.44337 22.0566 7.19235 21.87 7.94922C21.8219 8.14439 21.8231 8.23103 21.8753 8.34935C21.9326 8.47908 22.0367 8.56533 22.2034 8.62127C22.5952 8.75271 22.8436 9.07355 22.8623 9.47216C22.8681 9.59571 22.8635 9.64392 22.8367 9.74199C22.7952 9.89318 22.7945 10.0182 22.8347 10.1249C22.8706 10.2203 22.9284 10.2873 23.0533 10.3784C23.174 10.4664 23.3828 10.6784 23.471 10.8025C23.7023 11.1276 23.8174 11.4967 23.8162 11.9092C23.8147 12.4405 23.6305 12.8691 23.2318 13.2688C23.068 13.433 23.0261 13.5092 23.0185 13.6567C23.0085 13.8511 23.0675 13.9511 23.3117 14.1539C23.8563 14.6061 23.9801 15.3834 23.6041 15.9892C23.5169 16.1297 23.3288 16.3208 23.1792 16.4209C22.9592 16.568 22.8865 16.693 22.8989 16.9023C22.9067 17.0335 22.9247 17.0746 23.0408 17.2257C23.1432 17.3589 23.2613 17.5952 23.3037 17.7517C23.3512 17.9268 23.3512 18.272 23.3037 18.439C23.2405 18.6611 23.1542 18.8231 22.9789 19.0492C22.8287 19.2428 22.8545 19.5324 23.0357 19.6875C23.1379 19.7749 23.2184 19.8049 23.3533 19.8058C23.5645 19.8072 23.6786 19.725 23.8869 19.4213C24.1546 19.0308 24.2921 18.5846 24.2927 18.1042C24.293 17.7506 24.2345 17.5134 24.0547 17.1399L23.9551 16.9331L24.0609 16.8249C24.5415 16.3332 24.7705 15.8186 24.7707 15.2299C24.7709 14.7287 24.5815 14.2487 24.2054 13.7968C24.1451 13.7243 24.0958 13.6621 24.0958 13.6585C24.0958 13.6549 24.14 13.5926 24.1941 13.5201C24.4599 13.1636 24.6424 12.772 24.7282 12.3742C24.7572 12.2401 24.7623 12.1711 24.7627 11.9092C24.7633 11.5533 24.7426 11.4097 24.6489 11.1227C24.5088 10.6937 24.2882 10.3372 23.9406 9.97838L23.7774 9.80991L23.8034 9.67893C23.8318 9.53589 23.8267 9.37757 23.7878 9.19214C23.6929 8.74026 23.404 8.34095 22.9558 8.0421C22.8856 7.99535 22.826 7.9559 22.8233 7.95441C22.8205 7.95294 22.8298 7.89548 22.8439 7.82673C22.8766 7.66748 22.8663 7.34717 22.8218 7.14267C22.714 6.64673 22.4855 6.24122 22.1157 5.88954C21.5042 5.30814 20.628 5.0945 19.8658 5.34093C19.7237 5.38686 19.4277 5.53373 19.2808 5.6312L19.1533 5.7158L19.1308 5.68148C18.9796 5.45106 18.7126 5.16806 18.5348 5.04984C18.2854 4.88397 18.0381 4.7931 17.776 4.77093C17.6315 4.75872 17.5315 4.76849 17.3586 4.81169L17.304 4.82534L17.2118 4.68591C16.8955 4.20764 16.4782 3.91599 15.9901 3.83211C15.5737 3.76058 15.155 3.86232 14.758 4.13151L14.617 4.22712L14.425 4.03692C14.0533 3.66879 13.6652 3.45118 13.2259 3.36454C13.0322 3.32635 12.6748 3.32938 12.4858 3.3708C12.0211 3.4726 11.6395 3.69641 11.2633 4.08785L11.1283 4.22831L11.0233 4.15998C10.8232 4.0298 10.6329 3.94974 10.4032 3.89916C10.3344 3.88401 10.277 3.8694 10.2757 3.86667C10.2743 3.86396 10.2415 3.79651 10.2028 3.71684C10.0688 3.44137 9.90752 3.22341 9.67685 3.00627C9.37103 2.71839 9.00652 2.52666 8.57827 2.42844C8.42243 2.39271 7.93973 2.37567 7.78033 2.40027ZM3.58219 6.69842C3.84342 6.76172 4.08192 6.95729 4.20454 7.20876C4.32994 7.46597 4.3264 7.78598 4.1952 8.05229C4.12465 8.19546 3.95718 8.37032 3.81577 8.44844C3.61663 8.55843 3.34027 8.5949 3.11248 8.5412C2.80804 8.46944 2.54793 8.22674 2.44353 7.917C2.40699 7.80861 2.40129 7.76847 2.40115 7.61922C2.40103 7.47291 2.40705 7.42832 2.44074 7.32555C2.50602 7.12635 2.62546 6.96234 2.79154 6.84383C3.0178 6.68238 3.30099 6.63029 3.58219 6.69842ZM8.20105 7.1546C7.68044 7.20944 7.18193 7.44141 6.80542 7.80407C6.63077 7.97228 6.47863 8.16512 6.37096 8.3547C6.3272 8.43173 6.12569 8.91543 5.86479 9.5697C5.62638 10.1676 5.42912 10.6593 5.42646 10.6626C5.42378 10.6658 5.37586 10.6444 5.31994 10.6152C5.26402 10.5859 5.16764 10.5462 5.10577 10.5269C4.9972 10.493 4.97569 10.4917 4.49077 10.4917H3.98827L3.86827 10.5338C3.36096 10.7117 3.0202 11.1888 2.89318 11.8991C2.84995 12.1408 2.88307 12.2823 3.01342 12.4127C3.08292 12.4822 3.08272 12.4821 3.6549 12.7343L4.07152 12.9179L4.0299 12.9719C3.67999 13.4261 3.43374 14.0422 3.36643 14.6317C3.35629 14.7205 3.35106 16.0091 3.35112 18.3967C3.35121 21.4832 3.35442 22.0402 3.37255 22.1167C3.43755 22.3909 3.6238 22.624 3.88155 22.7538C4.09666 22.8622 4.07628 22.8609 5.54986 22.8557C7.00549 22.8506 6.89864 22.8584 7.12327 22.7419C7.27199 22.6648 7.45067 22.4833 7.52467 22.3342C7.61924 22.1437 7.62577 22.0964 7.62577 21.6016V21.1604L7.71202 21.1698C8.41802 21.2474 9.52519 21.3311 10.4083 21.3736C11.7948 21.4404 13.8928 21.4405 15.3283 21.3738C16.1383 21.3362 17.3593 21.2448 17.9333 21.1788C18.002 21.1709 18.0696 21.1644 18.0834 21.1644C18.1062 21.1642 18.109 21.2068 18.1142 21.633C18.1196 22.0676 18.1223 22.108 18.1522 22.1884C18.2833 22.5409 18.5384 22.7663 18.8859 22.8366C18.9888 22.8574 19.1646 22.8598 20.3083 22.8558C21.5248 22.8515 21.6189 22.8493 21.6958 22.8238C21.9586 22.7364 22.1846 22.5448 22.2928 22.3176C22.4014 22.0895 22.3933 22.4065 22.3933 18.3892C22.3933 15.5004 22.3893 14.7224 22.3739 14.6092C22.2938 14.0205 22.0881 13.4957 21.7603 13.0439C21.7073 12.9709 21.666 12.9092 21.6686 12.9069C21.6712 12.9046 21.8916 12.8094 22.1585 12.6953C22.6882 12.4689 22.7349 12.4405 22.8127 12.2976C22.8955 12.1456 22.8755 11.8932 22.7515 11.5225C22.5664 10.9693 22.2457 10.6316 21.7933 10.5136C21.6871 10.4859 21.6265 10.4821 21.2683 10.4803C20.8972 10.4785 20.8536 10.481 20.7485 10.5103C20.6253 10.5446 20.5112 10.5972 20.4106 10.6662C20.3761 10.6899 20.3447 10.7092 20.3408 10.7092C20.337 10.7092 20.1431 10.2317 19.9101 9.64797C19.677 9.06428 19.4502 8.51585 19.406 8.42922C19.0459 7.72349 18.3284 7.23522 17.5344 7.15565C17.345 7.13666 8.3809 7.13564 8.20105 7.1546ZM17.6458 8.13522C18.0586 8.25545 18.3859 8.51784 18.5644 8.87172C18.5852 8.91297 18.9212 9.74322 19.3111 10.7167C19.7009 11.6902 20.036 12.5234 20.0557 12.5682C20.0852 12.6352 20.1604 12.7193 20.4782 13.0407C20.6908 13.2558 20.9097 13.4921 20.9646 13.5659C21.2028 13.8858 21.3771 14.3385 21.4186 14.7447L21.4286 14.8427L20.0097 15.277L18.5908 15.7113L18.591 15.779C18.5921 16.1291 18.8791 16.4963 19.2508 16.6233C19.3473 16.6563 19.3583 16.6567 20.3945 16.6609L21.4408 16.6652V19.2822V21.8992H20.2483H19.0558V21.2344C19.0558 20.4793 19.0563 20.4831 18.9398 20.3535C18.9022 20.3117 18.837 20.2594 18.7949 20.2372C18.7268 20.2014 18.7023 20.197 18.5758 20.1977C18.4974 20.1981 18.2274 20.2199 17.9758 20.2462C17.075 20.3402 16.2243 20.3952 14.8633 20.4471C14.2028 20.4723 11.5543 20.4723 10.8808 20.4471C9.51937 20.3962 8.5021 20.3288 7.54327 20.2262C7.35352 20.2059 7.16983 20.1892 7.13509 20.1892C6.97955 20.1892 6.8048 20.3044 6.73036 20.456L6.68827 20.5417L6.68393 21.2205L6.67961 21.8992H5.48768H4.29577V19.2817V16.6642H5.30587C6.26209 16.6642 6.32213 16.6627 6.43163 16.6346C6.83005 16.5328 7.13081 16.1779 7.14967 15.7874L7.15327 15.713L5.73199 15.2774L4.31071 14.8419L4.31937 14.7668C4.36713 14.3524 4.50301 13.9707 4.71754 13.6483C4.78995 13.5394 4.9057 13.4114 5.21821 13.0942C5.44178 12.8673 5.6389 12.6581 5.65625 12.6292C5.67362 12.6003 6.00923 11.7709 6.40208 10.7861C6.79493 9.80126 7.13843 8.95065 7.16542 8.89587C7.36766 8.48534 7.76116 8.18991 8.20567 8.11487C8.2456 8.10812 10.364 8.10356 12.9133 8.10473C17.4129 8.10677 17.5511 8.10767 17.6458 8.13522ZM4.85806 11.4673C4.89943 11.4882 4.95991 11.5278 4.99248 11.5551L5.05168 11.6048L4.9488 11.8583C4.85133 12.0984 4.8061 12.1793 4.76941 12.1792C4.76053 12.1791 4.56427 12.0954 4.33327 11.9931C3.86034 11.7837 3.88816 11.8085 3.9615 11.6619C4.01304 11.5589 4.06543 11.492 4.12126 11.458C4.1635 11.4323 4.1995 11.4293 4.47556 11.4293C4.77487 11.4292 4.78479 11.4302 4.85806 11.4673ZM21.6641 11.4951C21.7245 11.554 21.8043 11.6891 21.821 11.7606C21.83 11.7988 21.8229 11.8025 21.4039 11.9818C21.1695 12.0822 20.9717 12.1642 20.9644 12.1642C20.9294 12.1642 20.8805 12.0774 20.7956 11.8643L20.703 11.6319L20.7512 11.5943C20.7777 11.5736 20.8475 11.5284 20.9063 11.4938L21.0133 11.4309L21.3088 11.4338L21.6044 11.4367L21.6641 11.4951ZM8.88577 15.7465C8.84666 15.7611 8.78278 15.8064 8.73388 15.8542C8.62183 15.9638 8.57966 16.0714 8.59001 16.2214C8.59706 16.3234 8.60951 16.3505 9.10526 17.3433C9.6457 18.4256 9.65627 18.4435 9.79948 18.5161C9.97094 18.603 10.4745 18.7545 10.8691 18.8379C12.3157 19.1438 13.8404 19.113 15.2383 18.7496C15.4795 18.6869 15.7895 18.587 15.9163 18.531C16.0805 18.4585 16.0831 18.4543 16.6363 17.3476L17.1431 16.334L17.1482 16.2179C17.1574 16.0126 17.0644 15.8503 16.888 15.7635L16.8133 15.7267L12.8833 15.724C9.23623 15.7215 8.94841 15.7232 8.88577 15.7465ZM15.9058 16.6718C15.9058 16.7013 15.3908 17.7008 15.3698 17.712C15.3113 17.7433 15.016 17.8345 14.8108 17.8848C14.1849 18.038 13.5515 18.0981 12.7033 18.0847C11.8303 18.0709 11.1788 17.9795 10.5866 17.7878L10.3551 17.7128L10.0929 17.1885L9.83068 16.6642H12.8682C14.5389 16.6642 15.9058 16.6676 15.9058 16.6718Z" fill="#17488B"/>
</svg>
